0.000000000000000000e+00	2.000000000000000000e+00	3.000000000000000000e+00	4.000000000000000000e+00	5.000000000000000000e+00	6.000000000000000000e+00	7.000000000000000000e+00
2.000000000000000000e+00	8.815943651653834756e-02	6.574841113884201393e-02	4.940948429262306124e-02	4.925997176466993116e-02	5.206560471041397908e-02	4.701704634191222060e-02
3.000000000000000000e+00	4.829394354664798272e-03	2.784085891443686175e-03	2.197184645361368108e-03	1.931329035561491977e-03	1.733228700110953438e-03	1.630991091517880335e-03
4.000000000000000000e+00	3.649050191670511097e-03	5.439037711701773985e-04	1.733114157846534192e-04	1.393186062967695816e-04	1.576693335038468916e-04	1.663956157837784961e-04
5.000000000000000000e+00	3.637941931660605439e-03	5.113398461132302383e-04	6.594819395875439825e-05	1.440029131642557673e-05	1.295619078496350015e-05	1.773519690106369997e-05
