0.000000000000000000e+00	2.000000000000000000e+00	3.000000000000000000e+00	4.000000000000000000e+00	5.000000000000000000e+00
2.000000000000000000e+00	1.896697374110784332e-02	1.987798174490211164e-03	1.958494711612540021e-03	1.957899747296377047e-03
3.000000000000000000e+00	1.020149588183965304e-02	3.269780571378667704e-04	2.723181676718058734e-04	2.729926749737896473e-04
4.000000000000000000e+00	7.434598673569897502e-03	1.142048616023952308e-04	3.586635178505819465e-05	3.585824357254461517e-05
5.000000000000000000e+00	9.155584088804853693e-03	9.411999302256455211e-05	7.548340737449662766e-06	4.387658264587248523e-06
6.000000000000000000e+00	1.348175076029946816e-02	1.522843387902252652e-04	1.216157541006499634e-05	1.989063513778539146e-06
7.000000000000000000e+00	1.107266936954310992e-02	1.993274573399662561e-04	1.846027120744415310e-05	2.930815125230073292e-06
