0.000000000000000000e+00	0.000000000000000000e+00	1.000000000000000000e+00	2.000000000000000000e+00	3.000000000000000000e+00	4.000000000000000000e+00	5.000000000000000000e+00
0.000000000000000000e+00	6.971779840770950809e-01	3.965269489705059436e-01	2.915005127645877714e-01	2.225940883800735515e-01	1.708341299039785044e-01	1.250730370605632746e-01
1.000000000000000000e+00	2.484138927718295975e-01	1.793673253811967350e-01	1.358720207186724371e-01	1.046536237812118464e-01	4.747575857588232084e-02	2.410174185962208476e-02
2.000000000000000000e+00	1.066958227305425805e-01	7.607296354959600104e-02	5.106075422744957987e-02	3.139980575401877388e-02	1.490502881168429168e-02	5.025299520394374726e-03
3.000000000000000000e+00	3.940898759661998207e-02	2.184301700046465539e-02	1.202741702835822407e-02	6.738564220908514410e-03	3.289466117168219576e-03	1.163357118522494399e-03
4.000000000000000000e+00	1.128663207026278995e-02	4.786015005551067653e-03	2.268028487274329451e-03	1.139839895405670312e-03	6.089824155914379906e-04	2.433358617528636890e-04
5.000000000000000000e+00	5.757442859915478869e-03	1.682048495615334153e-03	5.193510123685053442e-04	2.045874832773959644e-04	9.823319998798342814e-05	4.458126770690986831e-05
6.000000000000000000e+00	5.389668214802014953e-03	1.436139878428063050e-03	3.661929092477196981e-04	9.472588173963049959e-05	2.775256269339091347e-05	8.842267033673894519e-06
