0.000000000000000000e+00	0.000000000000000000e+00	1.000000000000000000e+00	2.000000000000000000e+00	3.000000000000000000e+00	4.000000000000000000e+00	5.000000000000000000e+00	6.000000000000000000e+00
0.000000000000000000e+00	6.971779840770950809e-01	2.484138927718295975e-01	1.066958227305425805e-01	3.940898759661998207e-02	1.128663207026278995e-02	5.757442859915478869e-03	5.389668214802014953e-03
1.000000000000000000e+00	4.760153311823848710e-01	1.875433089592484226e-01	7.905257722851961877e-02	2.565897144292086929e-02	5.860587818820035648e-03	2.001122737883376940e-03	1.668425484117680479e-03
2.000000000000000000e+00	3.815866485603420233e-01	1.395407028929013526e-01	5.609881450132211955e-02	1.569614651256482848e-02	3.081000051328299221e-03	6.592379219910309571e-04	4.219602150084110102e-04
3.000000000000000000e+00	3.210619797177440837e-01	1.077520031709232468e-01	3.767641894630784777e-02	9.417870512046760956e-03	1.648689133071776095e-03	2.872933440897963578e-04	1.105811004396696197e-04
4.000000000000000000e+00	2.758244136081872688e-01	5.522865444039604804e-02	1.901486301565531029e-02	4.841505104958824038e-03	9.625910916136048859e-04	1.519548354097508057e-04	3.545781442421273763e-05
5.000000000000000000e+00	2.369891723852607657e-01	3.193858541545324670e-02	7.953852236665455433e-03	1.843130603404536088e-03	4.171966953148933846e-04	8.076945490751325516e-05	1.389556658276102575e-05
